\begin{tikzpicture}
    \fill[lightgray] (0,0) -- (1, 1.73) -- (-1, 1.73) -- cycle;

    \draw (0,0) -- (1, 1.73);
    \draw (0,0) -- (2,0);
    \draw (0,0) -- (0.25, -0.5);
    \draw (0,0) -- (-0.25, -0.5);
    \draw (0,0) -- (-2, 0);
    \draw (0,0) -- (-1, 1.73);

    \draw[thick, red] (0.6, 2) -- (0.85, -0.75);

    \draw[thick, blue] (0,0) -- (0.6, 0.2);
    \fill (0.6, 0.2) circle (2pt);
    \node[above] at (0.6, 0.2) {$\mathnormal{m}$};

    \fill (0.8, 1.73) circle (2pt);
    \node[above] at (0.8, 1.73) {$\mathnormal{t}$};

    \draw[thick, blue] (0,0) -- (-0.3, 2);
    \fill (-0.3, 2) circle (2pt);
    \node[right] at (-0.3, 2) {$\mathnormal{v}$};

    \fill (0,0) circle (2pt);
    \node[below left] at (0, 0) {$\mathnormal{u}$};
\end{tikzpicture}